<svg width="16" height="16" viewBox="0 0 16 16" fill="none" xmlns="http://www.w3.org/2000/svg">
<g clip-path="url(#clip0)">
<path d="M6.08331 1.91958C6.24903 1.91958 6.36753 1.76773 6.32896 1.60964C6.29624 1.47548 6.15956 1.39351 6.02562 1.42633C5.73881 1.49458 5.7884 1.91958 6.08331 1.91958Z" fill="#F7F7F7"/>
<path d="M10.8535 2.55083C10.8535 1.69108 9.26567 1.24127 7.69724 1.24127C7.41721 1.24127 7.13962 1.25537 6.87222 1.28318C6.73488 1.29746 6.63513 1.42036 6.64941 1.55768C6.66369 1.69499 6.78644 1.79511 6.92391 1.78049C7.77284 1.69221 8.86364 1.74374 9.66664 2.03649C10.1736 2.2213 10.3535 2.42908 10.3535 2.55083C10.3535 2.67258 10.1736 2.88036 9.66664 3.06517C8.58768 3.45854 6.81025 3.45979 5.72788 3.06517C5.22089 2.88036 5.04104 2.67258 5.04104 2.55083C5.04104 2.46764 5.11861 2.36727 5.25948 2.26823C5.37245 2.18883 5.39963 2.03289 5.32023 1.91992C5.24079 1.80696 5.08482 1.7798 4.97192 1.85917C4.6158 2.10955 4.54102 2.37348 4.54102 2.55083C4.54102 4.28938 10.8535 4.29575 10.8535 2.55083Z" fill="#ffffff"/>
<path d="M13.5926 7.93032C13.5096 7.81991 13.3528 7.79773 13.2425 7.88057C13.1321 7.96347 13.1099 8.12022 13.1928 8.2306C13.3577 8.45019 13.4414 8.67816 13.4414 8.90819C13.4414 9.7205 12.4068 10.4406 10.9549 10.7696C11.7144 10.3852 12.4277 9.75881 12.4277 8.90819C12.4277 7.24435 12.4381 7.29342 12.3966 7.09489C12.3683 6.95976 12.2359 6.87317 12.1007 6.90132C11.9656 6.92957 11.8789 7.06204 11.9072 7.1972C12.1617 8.41366 10.0765 9.44531 7.69725 9.44531C6.46097 9.44531 5.30551 9.17012 4.51474 8.72953C7.56187 9.61653 11.5195 8.50607 11.5195 6.48633V5.58333C12.1095 5.15102 12.4277 4.62518 12.4277 4.06447V2.55082C12.4277 0.232426 7.32835 -0.794537 4.41492 0.701517C3.48109 1.18108 2.96681 1.83779 2.96681 2.55082V3.45428C2.37209 3.89034 2.05859 4.41315 2.05859 4.97268V6.48636C2.05859 7.04704 2.37681 7.57291 2.96681 8.00522C2.96681 8.92294 2.91299 9.21431 3.17943 9.68134C3.03843 9.92852 2.96681 10.1871 2.96681 10.4522V13.4492C2.96681 15.7676 8.06618 16.7946 10.9796 15.2985C11.9134 14.819 12.4277 14.1623 12.4277 13.4492V12.3033C13.2076 11.9179 13.9414 11.2853 13.9414 10.4219V8.90822C13.9414 8.56744 13.824 8.23844 13.5926 7.93032ZM11.9277 8.55375V8.90819C11.9277 10.0198 9.99039 10.959 7.69725 10.959C5.86826 10.959 4.26567 10.3615 3.69183 9.55562C3.68508 9.5439 3.67746 9.53262 3.66874 9.52197C3.43443 9.17315 3.4668 8.94775 3.4668 8.55388C5.17179 10.3963 10.2036 10.4092 11.9277 8.55375ZM11.9277 4.06447C11.9277 4.79884 11.0581 5.29424 11.1295 5.24624C10.3538 5.76814 9.0913 6.11524 7.69725 6.11524C5.40411 6.11524 3.4668 5.17608 3.4668 4.06447V3.71003C5.19373 5.56846 10.2103 5.55821 11.9277 3.71003V4.06447ZM7.69725 0.50005C9.99039 0.50005 11.9277 1.4392 11.9277 2.55082C11.9277 3.66244 9.99039 4.60159 7.69725 4.60159C5.40411 4.60159 3.4668 3.66244 3.4668 2.55082C3.4668 1.4392 5.40411 0.50005 7.69725 0.50005ZM2.96784 4.10937C3.02871 6.11202 6.96647 7.18235 9.97164 6.30767C9.18087 6.74826 8.02537 7.02345 6.78907 7.02345C3.85449 7.02345 1.59325 5.4973 2.96784 4.10937ZM2.55862 6.48633V6.13189C4.31436 8.02132 9.34086 7.94582 11.0195 6.13205V6.48633C11.0195 7.59795 9.08221 8.5371 6.78907 8.5371C4.49592 8.5371 2.55862 7.59795 2.55862 6.48633ZM4.53483 10.8162C4.69983 11.4093 5.23676 11.9452 6.06363 12.3377C4.55405 12.0208 3.4668 11.2849 3.4668 10.4521C3.4668 10.343 3.48599 10.2342 3.52349 10.1265C3.75508 10.3599 4.07708 10.5968 4.53483 10.8162ZM7.69725 15.5C5.40411 15.5 3.4668 14.5608 3.4668 13.4492V13.125C4.54745 14.288 6.79407 14.6142 8.39446 14.4897C8.53212 14.4789 8.63502 14.3587 8.62427 14.221C8.61359 14.0833 8.4934 13.9805 8.35562 13.9912C5.82382 14.1883 3.4668 13.2003 3.4668 11.9658C3.4668 11.9233 3.4668 11.6846 3.4668 11.6114C4.56999 12.7985 6.90503 13.1374 8.63512 12.9536C9.66899 13.0202 10.7595 12.9107 11.7153 12.5936C11.4608 12.963 10.9869 13.299 10.3442 13.5543C10.2159 13.6053 10.1532 13.7506 10.2042 13.8789C10.2555 14.0079 10.4011 14.0697 10.5289 14.0189C11.1255 13.7819 11.6015 13.4726 11.9277 13.12V13.4492C11.9277 14.5608 9.99039 15.5 7.69725 15.5ZM13.4414 10.4219C13.4414 12.1376 9.06124 13.1936 6.29394 11.8936C5.80582 11.6644 5.44001 11.3882 5.22001 11.0888C6.21966 11.4155 7.36909 11.5183 8.45228 11.4269C10.0742 11.5646 12.3511 11.2407 13.4414 10.0675V10.4219Z" fill="#ffffff"/>
<path d="M9.47975 13.8209C9.34463 13.8503 9.25932 13.9856 9.29144 14.1221C9.32322 14.2571 9.45932 14.3389 9.59219 14.3081C9.72675 14.2771 9.81063 14.1428 9.77957 14.0083C9.74854 13.8738 9.61429 13.7899 9.47975 13.8209Z" fill="#ffffff"/>
</g>
<defs>
<clipPath id="clip0">
<rect width="16" height="16" fill="white"/>
</clipPath>
</defs>
</svg>
